…
    ## ── Conflicts ────────────────────────────────────────────── tidyverse_conflicts() ──
    ## ✖ dplyr::filter() masks stats::filter()
    ## ✖ dplyr::lag()    masks stats::lag()

``` r
iris %>%
  group_by(Species) %>%
  mutate(mean_sw = mean(Sepal.Width))
```

    ## # A tibble: 150 x 6
    ## # Groups:   Species [3]
    ##    Sepal.Length Sepal.Width Petal.Length Petal.Width Species mean_sw
    ##           <dbl>       <dbl>        <dbl>       <dbl> <fct>     <dbl>
    ##  1          5.1         3.5          1.4         0.2 setosa     3.43
    ##  2          4.9         3            1.4         0.2 setosa     3.43
    ##  3          4.7         3.2          1.3         0.2 setosa     3.43
    ##  4          4.6         3.1          1.5         0.2 setosa     3.43
    ##  5          5           3.6          1.4         0.2 setosa     3.43
    ##  6          5.4         3.9          1.7         0.4 setosa     3.43
    ##  7          4.6         3.4          1.4         0.3 setosa     3.43
    ##  8          5           3.4          1.5         0.2 setosa     3.43
    ##  9          4.4         2.9          1.4         0.2 setosa     3.43
    ## 10          4.9         3.1          1.5         0.1 setosa     3.43
    ## # … with 140 more rows
